21

2
Tina Bystron
Elida Kline
2 1
2 1
2 1
1 2
2 1
2 1
2 1
2 1
2 1

7
Bohdan Messer
Nicole Hall
Robert Daniel
Ida Moreno
Fred Zanghi
Samuel Familia
Cherly Folsom
7 4 1 3 5 6 2
4 5 7 1 2 6 3
4 6 2 3 7 1 5

4
Edith Morris
Marc Hester
Aldo Jude
Stephen Avery
4 2 1 3
4 1 3 2
3 1 4 2
4 2 1 3
2 1 4 3
3 1 2 4
2 4 1 3
1 3 4 2
2 4 1 3
2 4 3 1

5
Tom Gibson
Michelle Tschida
Leigh Reisner
Kristin Spears
Albert Banks
1 2 4 5 3
1 5 4 2 3
5 4 2 3 1
1 2 5 4 3
3 2 4 1 5
3 5 4 2 1
1 4 2 3 5
3 2 4 5 1
5 4 2 1 3
5 1 2 4 3
5 4 1 3 2

6
Elizabeth Torres
Eusebio Manson
Pearl Montes
Rosanne Charter
Debra Prill
James Westberry
3 5 1 2 4 6

3
Peter Warren
Claire Shaver
Sharon Chavez
3 2 1
2 1 3

6
Jeffrey King
Michael Fletcher
Rodney Yanez
Georgie Delavega
Mark Sechrist
Randy Reid
5 2 6 4 3 1
2 1 6 3 4 5
6 1 5 4 2 3
1 2 5 3 4 6
5 1 6 4 2 3
3 4 1 5 2 6

2
Maryanne Wylie
Scott Anderson
2 1

3
George Taylor
Troy Murph
Bill Weaver
1 3 2
1 2 3
3 2 1
2 3 1
1 2 3
1 2 3
1 2 3
2 1 3
1 3 2
2 3 1
2 1 3
1 2 3

6
Cindy Hall
Jami Sutton
David Brown
Edith Andersen
Charlotte Joshua
Robert Wilson
3 2 1 5 4 6
5 2 4 3 1 6
5 6 1 4 3 2
6 3 4 1 2 5
1 3 2 5 6 4
4 6 2 5 3 1
6 2 5 1 4 3
6 1 3 2 5 4
2 6 4 5 3 1
3 5 2 6 1 4
1 3 5 2 6 4
3 5 2 6 4 1
5 1 3 4 6 2
6 3 1 2 5 4

7
Michelle Burrows
Jack Krieg
Ashley Edmonds
Arthur Mcabee
Jennie Rhew
Mary Rettig
Paul Aguiar
1 3 7 2 6 5 4
3 5 7 6 1 4 2

5
John Barer
Susan Deangelo
Fred Johnson
Randall Kubo
Robert Langholz
4 3 1 5 2
2 4 3 1 5
3 1 2 4 5
3 2 1 4 5
5 4 1 2 3
1 3 2 5 4
1 5 4 2 3
3 5 2 4 1
1 2 4 5 3

4
Michael Lee
Katelyn Rogers
Barbara Mitchell
Beatrice Byers
1 2 3 4
1 4 2 3
1 3 2 4
3 1 4 2

1
Gerald Thomas
1
1
1

2
Jeffery Jones
Pat Jones
2 1
2 1
2 1

7
Peggy Bullington
Karl Hottel
Brenda Drinkard
Seth Pacheco
Joseph Brush
Florence Hansen
John Walker
6 5 1 2 7 3 4
1 6 4 7 2 5 3
5 1 3 6 4 2 7
2 1 5 7 6 3 4
5 7 2 4 1 3 6
4 5 1 7 2 3 6
4 7 5 1 2 6 3

6
Adrienne Scott
Vernon Martinez
Bruce Welch
Jeff Ramirez
Dan Mckay
Jose Alegre
2 3 5 4 1 6
2 6 3 5 4 1
3 2 1 4 6 5
5 4 3 1 6 2
5 6 1 3 4 2
6 4 5 1 3 2
6 1 4 3 2 5
4 5 2 3 1 6
1 6 5 3 2 4
1 2 5 6 4 3

2
William Rosario
Charles Leahy
2 1
1 2
2 1
2 1
2 1
1 2
1 2
1 2

7
Eric Mckenna
Ed Gagner
Chris Beltran
Matthew Olson
Andrea Thompson
Lee Diaz
Trudy Steckler
1 4 6 3 2 5 7
1 4 2 6 5 7 3
2 6 7 5 1 3 4
5 6 7 3 4 1 2
5 7 6 2 3 4 1
1 7 3 4 5 6 2
2 5 7 1 4 6 3
2 7 1 5 4 6 3
6 7 4 5 1 3 2
6 1 7 4 3 5 2
1 6 5 7 3 4 2
2 7 4 1 3 6 5
4 7 3 5 6 1 2
2 1 4 5 6 3 7

2
Carmen Lockwood
Lorraine Titus
1 2
1 2
2 1
2 1
1 2
2 1
2 1
2 1
2 1

7
Addie Banks
John Milner
Ted Webster
William Miller
Kenneth Householder
Brent Sickler
Patrick Torgersen
3 5 2 6 1 7 4
5 4 2 1 6 7 3
2 5 7 3 6 1 4
6 2 7 1 5 3 4
2 6 5 4 7 3 1
7 6 1 2 4 5 3
4 5 1 3 6 7 2
5 3 7 1 2 6 4
1 2 7 4 5 6 3
2 1 4 5 3 7 6
3 1 6 4 5 2 7
1 2 7 5 6 4 3
2 1 3 5 6 4 7
3 4 6 2 1 5 7
